guid,Filename1,jdate,Title,MNC,Jno,Casenumber,Courtname,Body
1,"import-downloads/1984_1.rtf,import-downloads/1984_1.pdf",16 January1984,S v Theron,[1984] ZASCA 1,1,224/83,constitutional court,echo file_get_contents('http://africanliidev.uct.ac.za/uploaded_files/1981_8.html')
2,"import-downloads/1984_2.rtf,import-downloads/1984_2.pdf",17 February 1984,Ocean Commodities Incorporated and Others v Standard Bank of S.A Ltd. and Others,[1984] ZASCA 2,2,211/83,constitutional court,echo file_get_contents('http://africanliidev.uct.ac.za/uploaded_files/1981_8.html')
3,"import-downloads/1984_3.rtf,import-downloads/1984_3.pdf",27 February 1990,S v Makhwanya,[1984] ZASCA 3,3,270/1983,constitutional court,echo file_get_contents('http://africanliidev.uct.ac.za/uploaded_files/1981_8.html')
4,"import-downloads/1984_4.rtf,import-downloads/1984_4.pdf",28 February 1995,Malamed and Another v Cleveland Estate Malamed and Another vs Vorner Investments (Pty) Ltd,[1984] ZASCA 4,4,02/84,constitutional court,echo file_get_contents('http://africanliidev.uct.ac.za/uploaded_files/1981_8.html')
5,"import-downloads/1984_5.rtf,import-downloads/1984_5.pdf",12 March 2000,S v Majiedt and Another,[1984] ZASCA 5,5,238/83,constitutional court,echo file_get_contents('http://africanliidev.uct.ac.za/uploaded_files/1981_8.html')
6,"import-downloads/1984_6.rtf,import-downloads/1984_6.pdf",21 April 2005,Minister of Law and Order v Patterson,[1984] ZASCA 6,6,3/84,constitutional court,echo file_get_contents('http://africanliidev.uct.ac.za/uploaded_files/1981_8.html')
7,"import-downloads/1984_7.rtf,import-downloads/1984_7.pdf",2 March 2007,Taylor v Devine,[1984] ZASCA 7,7,122/82/AV,constitutional court,echo file_get_contents('http://africanliidev.uct.ac.za/uploaded_files/1981_8.html')
8,"import-downloads/1984_8.rtf,import-downloads/1984_8.pdf",1'5 May 2010,S v Basson,[1984] ZASCA 8,8,357/1983,constitutional court,echo file_get_contents('http://africanliidev.uct.ac.za/uploaded_files/1981_8.html')
9,"import-downloads/1984_9.rtf,import-downloads/1984_9.pdf",18 June 2015,S v Mkhonto,[1984] ZASCA 9,9,267/83,constitutional court,echo file_get_contents('http://africanliidev.uct.ac.za/uploaded_files/1981_8.html')
